{
    "scale":{
        "base":{
            "10":{
                "value":1,
                "type":"size"
            },
            "20":{
                "value":2,
                "type":"size"
            },
            "30":{
                "value":4,
                "type":"size"
            },
            "40":{
                "value":8,
                "type":"size"
            },
            "50":{
                "value":10,
                "type":"size"
            },
            "100":{
                "value":12,
                "type":"size"
            },
            "150":{
                "value":14,
                "type":"size"
            },
            "200":{
                "value":16,
                "type":"size"
            },
            "250":{
                "value":20,
                "type":"size"
            },
            "300":{
                "value":24,
                "type":"size"
            },
            "350":{
                "value":28,
                "type":"size"
            },
            "400":{
                "value":32,
                "type":"size"
            },
            "450":{
                "value":36,
                "type":"size"
            },
            "500":{
                "value":40,
                "type":"size"
            },
            "600":{
                "value":48,
                "type":"size"
            },
            "700":{
                "value":64,
                "type":"size"
            },
            "800":{
                "value":72,
                "type":"size"
            },
            "900":{
                "value":96,
                "type":"size"
            }
        }
    }
}