<svg width="16" height="16" viewBox="0 0 16 16" fill="none" xmlns="http://www.w3.org/2000/svg">
<path fill-rule="evenodd" clip-rule="evenodd" d="M2.01084 1.12233C1.78329 0.944397 1.45427 0.960572 1.24517 1.17085C1.01864 1.39866 1.01864 1.76801 1.24517 1.99581L3.06062 3.82154C1.39497 5.0941 0.625164 7.27308 1.17678 9.35333C1.79426 11.682 3.90895 13.2888 6.3051 13.2499L11.5162 13.25L11.6892 13.2455C11.9079 13.2343 12.1248 13.2025 12.3371 13.1504L14.0063 14.8291L14.061 14.8777C14.2885 15.0556 14.6176 15.0394 14.8267 14.8291C15.0532 14.6013 15.0532 14.232 14.8267 14.0042L12.9217 12.0885C12.9159 12.0823 12.9099 12.0763 12.9038 12.0705L4.39479 3.51333C4.38872 3.50695 4.38253 3.50072 4.37621 3.49465L2.06549 1.17085L2.01084 1.12233ZM3.89081 4.65642C2.50723 5.63028 1.8548 7.38242 2.29771 9.05273C2.76499 10.8149 4.33468 12.0456 6.1444 12.083L11.276 12.0833L3.89081 4.65642ZM6.6793 2.75019L6.74703 2.75226C8.73807 2.92913 10.4331 4.22877 11.1483 6.06604L11.2158 6.25L11.5155 6.25C12.6327 6.24867 13.6793 6.78649 14.3332 7.68989L14.42 7.81533C15.0656 8.79417 15.1799 10.0334 14.7244 11.115C14.5995 11.4117 14.259 11.5503 13.9641 11.4246C13.6691 11.299 13.5312 10.9567 13.6562 10.66C13.9598 9.93894 13.8836 9.11278 13.4532 8.46022C13.0481 7.84605 12.3801 7.46275 11.6532 7.42055L11.5162 7.41667H10.7854C10.52 7.41667 10.2885 7.23556 10.2232 6.9769C9.79853 5.29525 8.36353 4.06707 6.64495 3.9144C6.32584 3.88606 6.09 3.60292 6.11819 3.28201C6.14235 3.00694 6.35264 2.79339 6.61319 2.75584L6.6793 2.75019Z" fill="#523178"/>
</svg>
