<svg width="16" height="16" viewBox="0 0 16 16" fill="none" xmlns="http://www.w3.org/2000/svg">
<path fill-rule="evenodd" clip-rule="evenodd" d="M9.62592 7.99558L13.6554 12.0221C14.1149 12.4812 14.1149 13.1876 13.6554 13.6468C13.4433 13.8587 13.1252 14 12.8424 14C12.5596 14 12.2415 13.8587 12.0295 13.6468L8 9.62031L3.97054 13.6468C3.75847 13.8587 3.44035 14 3.15758 14C2.87482 14 2.5567 13.8587 2.34462 13.6468C1.88513 13.1876 1.88513 12.4812 2.34462 12.0221L6.37408 7.99558L2.34462 3.96909C1.88513 3.50993 1.88513 2.80353 2.34462 2.34437C2.80412 1.88521 3.51105 1.88521 3.97054 2.34437L8 6.37086L12.0295 2.34437C12.489 1.88521 13.1959 1.88521 13.6554 2.34437C14.1149 2.80353 14.1149 3.50993 13.6554 3.96909L9.62592 7.99558Z" fill="#523178"/>
</svg>
