<svg width="16" height="16" viewBox="0 0 16 16" fill="none" xmlns="http://www.w3.org/2000/svg">
<path fill-rule="evenodd" clip-rule="evenodd" d="M10.833 1H3.26186C2.56784 1 2 1.56784 2 2.26186V11.0948H3.26186V2.26186H10.833V1ZM12.7258 3.52371H5.78557C5.09155 3.52371 4.52371 4.09155 4.52371 4.78557V13.6186C4.52371 14.3126 5.09155 14.8804 5.78557 14.8804H12.7258C13.4198 14.8804 13.9876 14.3126 13.9876 13.6186V4.78557C13.9876 4.09155 13.4198 3.52371 12.7258 3.52371ZM5.78557 13.6186H12.7258V4.78557H5.78557V13.6186Z" fill="#523178"/>
</svg>
