<svg width="16" height="16" viewBox="0 0 16 16" fill="none" xmlns="http://www.w3.org/2000/svg">
<path fill-rule="evenodd" clip-rule="evenodd" d="M13.0244 3H2.97561C2.43674 3 2 3.43674 2 3.97561C2 4.51448 2.43674 4.95122 2.97561 4.95122H13.0244C13.5631 4.95122 14 4.51448 14 3.97561C14 3.43674 13.5631 3 13.0244 3ZM14 7.92683C14 7.38796 13.5631 6.95122 13.0244 6.95122H2.97561C2.43674 6.95122 2 7.38796 2 7.92683C2 8.4657 2.43674 8.90244 2.97561 8.90244H13.0244C13.5631 8.90244 14 8.4657 14 7.92683ZM2.97561 10.9024C2.43674 10.9024 2 11.3392 2 11.878C2 12.4169 2.43674 12.8537 2.97561 12.8537H8.1029C8.64177 12.8537 9.07851 12.4169 9.07851 11.878C9.07851 11.3392 8.64177 10.9024 8.1029 10.9024H2.97561Z" fill="#523178"/>
</svg>
