<svg width="16" height="16" viewBox="0 0 16 16" fill="none" xmlns="http://www.w3.org/2000/svg">
<path fill-rule="evenodd" clip-rule="evenodd" d="M14.6173 12.5064L11.5568 9.44587C12.0389 8.60284 12.2958 7.64533 12.2958 6.64803C12.2958 5.13921 11.7086 3.7207 10.6415 2.65422C9.57536 1.58742 8.15684 1 6.64803 1C5.13921 1 3.7207 1.58742 2.65422 2.65483C1.58742 3.72101 1 5.13952 1 6.64833C1 8.15715 1.58742 9.57536 2.65422 10.6418C3.7207 11.7089 5.13921 12.2961 6.64803 12.2961C7.77604 12.2961 8.85294 11.9679 9.77065 11.3566L12.7684 14.3546C13.0237 14.6096 13.358 14.7373 13.6928 14.7373C14.0271 14.7373 14.362 14.6096 14.6173 14.3546C15.1276 13.8444 15.1276 13.0169 14.6173 12.5064ZM9.74861 9.74861C8.92028 10.5769 7.8192 11.0327 6.64803 11.0327C5.47685 11.0327 4.37578 10.5769 3.54775 9.74861C2.71942 8.92059 2.26362 7.81951 2.26362 6.64833C2.26362 5.47716 2.71911 4.37578 3.54744 3.54775C4.37547 2.71972 5.47685 2.26362 6.64772 2.26362C7.8192 2.26362 8.92028 2.71942 9.74831 3.54775C11.4579 5.25737 11.4579 8.0393 9.74861 9.74861Z" fill="#523178"/>
</svg>
