<svg width="16" height="16" viewBox="0 0 16 16" fill="none" xmlns="http://www.w3.org/2000/svg">
<path fill-rule="evenodd" clip-rule="evenodd" d="M6.88884 4.87733L1 5.62169L5.65874 8.18544L2.75758 16L8.71218 9.86756L13.2754 12.3783L11.4223 7.07947L14.5065 3.91009L10.3327 4.372L8.70997 0L6.88884 4.87733Z" fill="#523178"/>
</svg>
